{
  "hydrogen": {
    "symbol": "H",
    "name": {
      "latim": "Hydrogenium",
      "pt_br": "Hidrogênio",
      "ingles": "Hydrogen"
    },
    "year_of_discovery": 1766,
    "disvovery_to": [
      "Henry Cavendish"
    ],
    "electron_layer": {
      "K": 1,
      "L": 0,
      "M": 0,
      "N": 0,
      "O": 0,
      "P": 0,
      "Q": 0,
      "R": 0
    },
    "electron_number": 1,
    "protons_number": 1,
    "neutrons_number": 0,
    "info": {
      "ingles": "",
      "pt_br": "",
      "latim": ""
    },
    "atomic_number": 1,
    "atomic_weight": [1.0079, "g/moll"],
    "density": [0.0000899, "g/cm3"],
    "fusion_point": {
      "C": -259.14,
      "F": -434.45,
      "K": 14.01
    },
    "boiling_point": {
      "C": -252.87,
      "F": -423.17,
      "K": 20.28
    },
    "avelencia": "I",
    "period": 1,
    "group": "IA",
    "phase": {
      "ingles": "gaseous",
      "pt_br": "gasoso",
      "latim": ""
    }
  },
  "helium": {
    "symbol": "He",
    "name": {
      "latim": "Helium",
      "pt_br": "Hélio",
      "ingles": "Helium"
    },
    "year_of_discovery": 1895,
    "disvovery_to": [
      "Pierre Jules César Janssen",
      "Joseph Norman Lockyer"
    ],
    "electron_layer": {
      "K": 2,
      "L": 0,
      "M": 0,
      "N": 0,
      "O": 0,
      "P": 0,
      "Q": 0,
      "R": 0
    },
    "electron_number": 2,
    "protons_number": 2,
    "neutrons_number": 2,
    "info": {
      "ingles": "",
      "pt_br": "",
      "latim": ""
    },
    "atomic_number": 2,
    "atomic_weight": [4.0026, "g/moll"],
    "density": [0.00017846, "g/cm3"],
    "fusion_point": {
      "C": -272.2,
      "F": -457.96,
      "K": 0.95
    },
    "boiling_point": {
      "C": -268.9,
      "F": -452.02,
      "K": 4.25
    },
    "avelencia": "O",
    "period": 1,
    "group": "VIIIA",
    "phase": {
      "ingles": "gaseous",
      "pt_br": "gasoso",
      "latim": ""
    }
  },
  "lithium": {
    "symbol": "Li",
    "name": {
      "latim": "Lithium",
      "pt_br": "Litío",
      "ingles": "Lithium"
    },
    "year_of_discovery": 1817,
    "disvovery_to": [
      "Johan August Arfwedson"
    ],
    "electron_layer": {
      "K": 2,
      "L": 1,
      "M": 0,
      "N": 0,
      "O": 0,
      "P": 0,
      "Q": 0,
      "R": 0
    },
    "electron_number": 3,
    "protons_number": 3,
    "neutrons_number": 4,
    "info": {
      "ingles": "",
      "pt_br": "",
      "latim": ""
    },
    "atomic_number": 3,
    "atomic_weight": [6.941, "g/moll"],
    "density": [0.534, "g/cm3"],
    "fusion_point": {
      "C": 180.5,
      "F": 356.9,
      "K": 453.65
    },
    "boiling_point": {
      "C": 1342.0,
      "F": 2447.6,
      "K": 1615.15
    },
    "avelencia": "I",
    "period": 2,
    "group": "IA",
    "phase": {
      "ingles": "solid",
      "pt_br": "Sólido",
      "latim": ""
    }
  },
    "beryllium": {
    "symbol": "Be",
    "name": {
      "latim": "Beryllium",
      "pt_br": "Berílio",
      "ingles": "Beryllium"
    },
    "year_of_discovery": 1798,
    "disvovery_to": [
      "Louis-Nicolas Vauquelin"
    ],
    "electron_layer": {
      "K": 2,
      "L": 2,
      "M": 0,
      "N": 0,
      "O": 0,
      "P": 0,
      "Q": 0,
      "R": 0
    },
    "electron_number": 4,
    "protons_number": 4,
    "neutrons_number": 5,
    "info": {
      "ingles": "",
      "pt_br": "",
      "latim": ""
    },
    "atomic_number": 4,
    "atomic_weight": [9.0121, "g/moll"],
    "density": [1.848, "g/cm3"],
    "fusion_point": {
      "C": 1278.0,
      "F": 2332.4,
      "K": 1551.15
    },
    "boiling_point": {
      "C": 2970.0,
      "F": 5378.0,
      "K": 3243.15
    },
    "avelencia": "II",
    "period": 2,
    "group": "IIA",
    "phase": {
      "ingles": "solid",
      "pt_br": "Sólido",
      "latim": ""
    }
  },
  "boron": {
    "symbol": "B",
    "name": {
      "latim": "Borum",
      "pt_br": "Boro",
      "ingles": "Boron"
    },
    "year_of_discovery": 1808,
    "disvovery_to": [
      "Joseph Louis Gay-Lussac",
      "Louis Jacques Thénard",
      "Humphry Davy"
    ],
    "electron_layer": {
      "K": 2,
      "L": 3,
      "M": 0,
      "N": 0,
      "O": 0,
      "P": 0,
      "Q": 0,
      "R": 0
    },
    "electron_number": 5,
    "protons_number": 5,
    "neutrons_number": 6,
    "info": {
      "ingles": "",
      "pt_br": "",
      "latim": ""
    },
    "atomic_number": 5,
    "atomic_weight": [10.811, "g/moll"],
    "density": [2.34, "g/cm3"],
    "fusion_point": {
      "C": 2075.8,
      "F": 3768.44,
      "K": 2348.95
    },
    "boiling_point": {
      "C": 3658.0,
      "F": 6616.4,
      "K": 3931.15
    },
    "avelencia": "III",
    "period": 2,
    "group": "IIIA",
    "phase": {
      "ingles": "solid",
      "pt_br": "Sólido",
      "latim": ""
    }
  },
  "carbon": {
    "symbol": "C",
    "name": {
      "latim": "Carbonium",
      "pt_br": "Carbono",
      "ingles": "Carbon"
    },
    "year_of_discovery": "None",
    "disvovery_to": [
      "Humphry Davy"
    ],
    "electron_layer": {
      "K": 2,
      "L": 4,
      "M": 0,
      "N": 0,
      "O": 0,
      "P": 0,
      "Q": 0,
      "R": 0
    },
    "electron_number": 6,
    "protons_number": 6,
    "neutrons_number": 6,
    "info": {
      "ingles": "",
      "pt_br": "",
      "latim": ""
    },
    "atomic_number": 6,
    "atomic_weight": [12.0107, "g/moll"],
    "density": [2.26, "g/cm3"],
    "fusion_point": {
      "C": 3642.0,
      "F": 6587.6,
      "K": 3915.15
    },
    "boiling_point": {
      "C": 3642.0,
      "F": 6587.6,
      "K": 3915.15
    },
    "avelencia": "II, IV",
    "period": 2,
    "group": "IVA",
    "phase": {
      "ingles": "solid",
      "pt_br": "Sólido",
      "latim": ""
    }
  },
  "nitrogenium": {
    "symbol": "N",
    "name": {
      "latim": "Nitrogenium",
      "pt_br": "Nitrogênio",
      "ingles": "Nitrogen"
    },
    "year_of_discovery": 1772,
    "disvovery_to": [
      "Daniel Rutherford"
    ],
    "electron_layer": {
      "K": 2,
      "L": 5,
      "M": 0,
      "N": 0,
      "O": 0,
      "P": 0,
      "Q": 0,
      "R": 0
    },
    "electron_number": 7,
    "protons_number": 7,
    "neutrons_number": 7,
    "info": {
      "ingles": "",
      "pt_br": "",
      "latim": ""
    },
    "atomic_number": 7,
    "atomic_weight": [14.0067, "g/moll"],
    "density": [0.001251, "g/cm3"],
    "fusion_point": {
      "C": -209.9,
      "F": -345.82,
      "K": 63.25
    },
    "boiling_point": {
      "C": -195.8,
      "F": -320.44,
      "K": 77.35
    },
    "avelencia": "I, II, III, IV, V",
    "period": 2,
    "group": "VA",
    "phase": {
      "ingles": "Gaseous",
      "pt_br": "Gasoso",
      "latim": ""
    }
  },
  "oxygen": {
    "symbol": "O",
    "name": {
      "latim": "Oxygenium",
      "pt_br": "Oxigênio",
      "ingles": "Oxygen"
    },
    "year_of_discovery": 1774,
    "disvovery_to": [
      "Michal Sedziwój",
      "Joseph Prestly",
      "Carl Whlhelm Scheele"
    ],
    "electron_layer": {
      "K": 2,
      "L": 6,
      "M": 0,
      "N": 0,
      "O": 0,
      "P": 0,
      "Q": 0,
      "R": 0
    },
    "electron_number": 8,
    "protons_number": 8,
    "neutrons_number": 8,
    "info": {
      "ingles": "",
      "pt_br": "",
      "latim": ""
    },
    "atomic_number": 8,
    "atomic_weight": [15.9994, "g/moll"],
    "density": [0.00142897, "g/cm3"],
    "fusion_point": {
      "C": -218.79,
      "F": -361.82,
      "K": 54.36
    },
    "boiling_point": {
      "C": -182.96,
      "F": -297.33,
      "K": 90.19
    },
    "avelencia": "II",
    "period": 2,
    "group": "VIA",
    "phase": {
      "ingles": "Gaseous",
      "pt_br": "Gasoso",
      "latim": ""
    }
  },
    "fluorine": {
    "symbol": "F",
    "name": {
      "latim": "Fluorum",
      "pt_br": "Flúor",
      "ingles": "Fluorine"
    },
    "year_of_discovery": 1886,
    "disvovery_to": [
      "Ferdinand Frederic Henru Moissan"
    ],
    "electron_layer": {
      "K": 2,
      "L": 7,
      "M": 0,
      "N": 0,
      "O": 0,
      "P": 0,
      "Q": 0,
      "R": 0
    },
    "electron_number": 9,
    "protons_number": 9,
    "neutrons_number": 10,
    "info": {
      "ingles": "",
      "pt_br": "",
      "latim": ""
    },
    "atomic_number": 9,
    "atomic_weight": [18.9984, "g/moll"],
    "density": [0.001696, "g/cm3"],
    "fusion_point": {
      "C": -219.67,
      "F": -363.41,
      "K": 53.48
    },
    "boiling_point": {
      "C": -188.96,
      "F": -306.6,
      "K": 85.04
    },
    "avelencia": "I",
    "period": 2,
    "group": "VIIA",
    "phase": {
      "ingles": "Gaseous",
      "pt_br": "Gasoso",
      "latim": ""
    }
  }
}
